{
    "applications": {
        "Slayt Test": {
            "applicationId": "unZkVPZ2OybDFuOvrOFFYXFAH1YwxyKikcIzhTRM", 
            "masterKey": "1CG4rnqk6nzs1VP1lCw4hES4q5Q2BHnZx7NL8qi6"
        }, 
        "_default": {
            "link": "Slayt Test"
        }
    }, 
    "global": {
        "parseVersion": "1.2.18"
    }
}