{
    "applications": {
        "Slayt": {
            "applicationId": "OoOrtMdxCOTwzZg0r270xkcUGE78I8XzdrSNWQyI", 
            "masterKey": "2iOTPGtfkxwOMXC9xYfrZkuydH9SiE4YRPRHkcAT"
        }, 
        "_default": {
            "link": "Slayt"
        }
    }, 
    "global": {
        "parseVersion": "1.2.18"
    }
}